[{ "id":"1", "firstname":"Fred", "surname":"Redwood", "sex":"male","tier":"gold","email":"Fred@gmail.com" },
 { "id":"2", "firstname":"Trevor", "surname":"Smith", "sex":"male","tier":"silver","email":"Trevor@gmail.com" },
 { "id":"3", "firstname":"James", "surname":"Jones", "sex":"male","tier":"bronze","email":"James@gmail.com" },
 { "id":"4", "firstname":"Raymond", "surname":"Watson", "sex":"male","tier":"gold","email":"Raymond@gmail.com" },
 { "id":"5", "firstname":"Sam", "surname":"Walker", "sex":"male","tier":"silver","email":"Sam@gmail.com" },
 { "id":"6", "firstname":"Bart", "surname":"Lewis", "sex":"male","tier":"bronze","email":"Bart@gmail.com" },
 { "id":"7", "firstname":"Jan", "surname":"Thompson", "sex":"male","tier":"silver","email":"Jan@gmail.com" },
 { "id":"8", "firstname":"Mike", "surname":"White", "sex":"male","tier":"gold","email":"Mike@gmail.com" },
 { "id":"9", "firstname":"David", "surname":"Martin", "sex":"male","tier":"silver","email":"David@gmail.com" },
 { "id":"10", "firstname":"Jimmy", "surname":"Young", "sex":"male","tier":"bronze","email":"Jimmy@gmail.com" },
 { "id":"11", "firstname":"Danny", "surname":"Brown", "sex":"male","tier":"silver","email":"Danny@gmail.com" },
 { "id":"12", "firstname":"Rob", "surname":"Evans", "sex":"male","tier":"gold","email":"Rob@gmail.com" },
 { "id":"13", "firstname":"Homer", "surname":"Roberts", "sex":"male","tier":"bronze","email":"Homer@gmail.com" },
 { "id":"14", "firstname":"Steve", "surname":"Johnson", "sex":"male","tier":"silver","email":"Steve@gmail.com" },
 { "id":"15", "firstname":"Ann", "surname":"Bell", "sex":"female","tier":"gold","email":"Ann@gmail.com" },
 { "id":"16", "firstname":"Cristina", "surname":"Murphy", "sex":"female","tier":"bronze","email":"Cristina@gmail.com" },
 { "id":"17", "firstname":"Abby", "surname":"Davis", "sex":"female","tier":"gold","email":"Abby@gmail.com" },
 { "id":"18", "firstname":"Cara", "surname":"Hunt", "sex":"female","tier":"silver","email":"Cara@gmail.com" },
 { "id":"19", "firstname":"Emma", "surname":"Chapman", "sex":"female","tier":"gold","email":"Emma@gmail.com" },
 { "id":"20", "firstname":"Ellis", "surname":"Stewart", "sex":"female","tier":"bronze","email":"Ellis@gmail.com" },
 { "id":"21", "firstname":"Jessie", "surname":"Fox", "sex":"female","tier":"gold","email":"Jessie@gmail.com" },
 { "id":"22", "firstname":"Kate", "surname":"Richardson", "sex":"female","tier":"silver","email":"Kate@gmail.com" },
 { "id":"23", "firstname":"Kesha", "surname":"Walsh", "sex":"female","tier":"bronze","email":"Kesha@gmail.com" },
 { "id":"24", "firstname":"Tamia", "surname":"Brooks", "sex":"female","tier":"gold","email":"Tamia@gmail.com" },
 { "id":"25", "firstname":"Ursula", "surname":"Lloyd", "sex":"female","tier":"bronze","email":"Ursula@gmail.com" }
 ]